{
    "env": "dev",
    "instance_url": "http://192.168.1.33",
    "instance_port": 3010,
    "instance_port_socket": 3011,
    "access_pk": "ZmU2NjhiOWUzMjIyYTRiYTFkN2UiLCJpYXQiOjE1NzMxMjYyMTB9",
    "cron_pk": "BmU2NjhiOWUzVjIyYTRiYTHkN2UiLTJpYXQiOjE1NzVxMjYyMTG4",
    "serve_public_folder": true,
    "public_folder_path": "./public",
    "ssl_key": null,
    "ssl_cert": null,
    "ssl_ca": null,
    "bind_ports": {
      "http": 3010,
      "socket": 3011
    },
    "root_node": {
      "url": "http://192.168.1.33",
      "port": 3010
    },
    "database": {
      "host": "127.0.0.1",
      "port": 27017,
      "name": "plaanet3010",
      "username": "",
      "password": "",
      "secure": false
    }
  }
  